house_price_pre_3
…
EDA

Lets do EDA for data quality.

We first check for missing values.

## # A tibble: 82 x 3
##    feature      num_missing pct_missing
##    <fct>              <int>       <dbl>
##  1 PoolQC              2909      0.997 
##  2 MiscFeature         2814      0.964 
##  3 Alley               2721      0.932 
##  4 Fence               2348      0.804 
##  5 SalePrice           1459      0.500 
##  6 FireplaceQu         1420      0.486 
##  7 LotFrontage          486      0.166 
##  8 GarageYrBlt          159      0.0545
##  9 GarageFinish         159      0.0545
## 10 GarageQual           159      0.0545
## # ... with 72 more rows
…
